[
    {
        "_id": "6118b265319acb4a4c7b081a",
        "name": "Avengers: Endgame",
        "description": "After the devastating events of Avengers: Infinity War (2018), the universe is in ruins. With the help of remaining allies, the Avengers assemble once more in order to reverse Thanos' actions and restore balance to the universe.",
        "release_date": "01/01/2019",
        "rating": 4,
        "ticket_price": 150,
        "country": "USA",
        "genre": ["action", "thriller"],
        "photo": "movie-img/avengers-endgame.jpg",
        "status": "active"
    },
    {
        "_id": "6118b265319acb4a4c7b081b",
        "name": "The Dark Knight",
        "description": "When the menace known as the Joker wreaks havoc and chaos on the people of Gotham, Batman must accept one of the greatest psychological and physical tests of his ability to fight injustice.",
        "release_date": "01/07/2018",
        "rating": 4.5,
        "ticket_price": 150,
        "country": "USA",
        "genre": ["action", "thriller", "suspense"],
        "photo": "movie-img/the-dark-knight.jpg",
        "status": "active"
    },
    {
        "_id": "6118b265319acb4a4c7b081c",
        "name": "The Matrix",
        "description": "When a beautiful stranger leads computer hacker Neo to a forbidding underworld, he discovers the shocking truth--the life he knows is the elaborate deception of an evil cyber-intelligence.",
        "release_date": "01/07/1999",
        "rating": 4.5,
        "ticket_price": 150,
        "country": "USA",
        "genre": ["action", "thriller", "sci-fi"],
        "photo": "movie-img/the-matrix.jpg",
        "status": "active"
    }
]